time,y,ALT,LAT-POS,LON-POS,SPEED,T-H
0,0,32000.0,47.62317,8.56055,393.0,25.91
1,0,32000.0,47.62317,8.56055,393.0,25.91
2,0,32000.0,47.62216,8.55986,393.0,25.91
3,0,32000.0,47.62216,8.55986,393.0,25.91
4,1,31008.0,47.62427,8.56123,393.0,25.91
5,0,32000.0,47.62216,8.55986,393.0,25.91
6,0,32000.0,47.625170000000004,8.5618,393.0,25.91
7,0,32000.0,47.625170000000004,8.5618,393.0,25.78
8,0,32000.0,47.625170000000004,8.5618,393.0,25.78
9,0,32000.0,47.62317,8.56055,393.0,25.91
10,0,32000.0,47.62317,8.56055,393.0,25.91
11,0,32000.0,47.62596,8.56247,393.0,25.91
12,0,32000.0,47.62596,8.56247,393.0,25.91
13,0,32000.0,47.62596,8.56247,393.0,25.91
14,0,32000.0,47.62596,8.56247,393.0,25.91
15,0,32000.0,47.62596,8.56247,393.0,25.91
16,0,32000.0,47.62596,8.56247,393.0,25.91
17,0,32000.0,47.625170000000004,8.5618,393.0,25.91
18,0,32000.0,47.625170000000004,8.5618,393.0,25.91
19,0,32000.0,47.62427,8.56123,393.0,25.91
20,0,32000.0,47.62427,8.56123,393.0,25.91
21,0,32000.0,47.62216,8.55986,393.0,25.91
22,0,32000.0,47.61139,8.55215,393.0,25.78
23,0,32000.0,47.61139,8.55215,393.0,25.78
24,0,32000.0,47.61296,8.55327,393.0,25.78
25,0,32000.0,47.61296,8.55327,393.0,25.78
26,0,32000.0,47.62596,8.56247,393.0,25.78
27,0,31975.0,47.62676,8.56307,393.0,25.78
28,0,32000.0,47.625170000000004,8.5618,393.0,25.91
29,0,32000.0,47.625170000000004,8.5618,393.0,25.91
30,0,31975.0,47.627559999999995,8.56371,394.0,25.85
31,0,31975.0,47.627559999999995,8.56371,394.0,25.85
32,0,32000.0,47.61479,8.55455,394.0,25.85
33,0,32000.0,47.616240000000005,8.55546,393.0,25.78
34,0,32000.0,47.616240000000005,8.55546,393.0,25.78
35,0,32000.0,47.616240000000005,8.55546,393.0,25.91
36,0,32000.0,47.616240000000005,8.55546,393.0,25.91
37,0,32000.0,47.616240000000005,8.55546,393.0,25.91
38,0,32000.0,47.62596,8.56247,393.0,25.91
39,0,31975.0,47.62843,8.56434,394.0,25.85
40,0,31975.0,47.62843,8.56434,394.0,25.85
41,0,31975.0,47.61759,8.55645,394.0,25.85
42,0,31975.0,47.61759,8.55645,393.0,25.78
43,0,32000.0,47.621109999999994,8.5591,393.0,25.78
44,0,31975.0,47.62676,8.56307,393.0,25.78
45,0,31975.0,47.629459999999995,8.56511,393.0,25.78
46,0,31975.0,47.629459999999995,8.56511,394.0,25.85
47,0,31975.0,47.627559999999995,8.56371,394.0,25.85
48,0,31975.0,47.627559999999995,8.56371,394.0,25.85
49,0,31975.0,47.62676,8.56307,393.0,25.91
50,1,32961.0,47.62676,8.56307,393.0,25.91
51,0,31975.0,47.62843,8.56434,393.0,25.91
52,1,31152.0,47.630359999999996,8.5657,393.0,25.91
53,0,31975.0,47.630359999999996,8.5657,394.0,25.85
54,0,31975.0,47.630359999999996,8.5657,394.0,25.85
55,0,32000.0,47.63136,8.56638,394.0,25.85
56,0,32000.0,47.63136,8.56638,391.0,25.58
57,0,32000.0,47.63136,8.56638,394.0,25.85
58,0,32000.0,47.63136,8.56638,391.0,25.58
59,0,32000.0,47.63136,8.56638,394.0,25.85
60,0,32000.0,47.63136,8.56638,391.0,25.58
61,0,32000.0,47.63136,8.56638,391.0,25.58
62,0,32000.0,47.63136,8.56638,391.0,25.58
63,0,32000.0,47.63136,8.56638,391.0,25.58
64,0,32000.0,47.55515,8.51186,391.0,25.58
65,0,32000.0,47.55515,8.51186,391.0,25.58
66,0,32000.0,47.5566,8.513,391.0,25.58
67,0,31975.0,47.558440000000004,8.514339999999999,390.0,25.78
68,0,31975.0,47.558440000000004,8.514339999999999,390.0,25.78
69,0,32000.0,47.55921,8.51483,390.0,25.78
70,0,32000.0,47.55977,8.51518,390.0,25.78
71,0,32000.0,47.56183,8.516810000000001,390.0,25.78
72,0,32000.0,47.56183,8.516810000000001,390.0,25.78
73,0,32000.0,47.56183,8.516810000000001,394.0,25.85
74,1,31110.0,47.63136,8.56638,394.0,25.85
75,0,32000.0,47.63136,8.56638,390.0,25.78
76,0,32000.0,47.63136,8.56638,390.0,25.78
77,0,32000.0,47.63136,8.56638,394.0,25.85
78,0,31975.0,47.63397,8.56821,394.0,25.85
79,0,31975.0,47.63397,8.56821,390.0,25.78
80,0,31975.0,47.63397,8.56821,390.0,25.78
81,0,31975.0,47.63397,8.56821,390.0,25.78
82,0,31975.0,47.63544,8.569339999999999,390.0,25.78
83,0,31975.0,47.63544,8.569339999999999,390.0,25.78
84,0,32000.0,47.63136,8.56638,390.0,25.78
85,0,31975.0,47.63544,8.569339999999999,390.0,25.78
86,0,31975.0,47.63397,8.56821,390.0,25.78
87,0,31975.0,47.63397,8.56821,390.0,25.78
88,0,32000.0,47.63621,8.56997,390.0,25.78
89,0,31975.0,47.63544,8.569339999999999,390.0,25.78
90,0,31975.0,47.63544,8.569339999999999,390.0,25.78
91,0,31975.0,47.63544,8.569339999999999,392.0,25.85
92,0,31975.0,47.63544,8.569339999999999,391.0,25.71
93,0,32000.0,47.581920000000004,8.531089999999999,391.0,25.71
94,0,31975.0,47.5856,8.533560000000001,391.0,25.71
95,0,31975.0,47.5856,8.533560000000001,391.0,25.71
96,0,31975.0,47.5856,8.533560000000001,392.0,25.85
97,0,31975.0,47.63397,8.56821,392.0,25.85
98,0,32000.0,47.63621,8.56997,392.0,25.85
99,0,32000.0,47.63621,8.56997,391.0,25.71
100,0,32000.0,47.63621,8.56997,394.0,25.85
101,0,32000.0,47.63713,8.57057,394.0,25.85
102,0,31975.0,47.6376,8.570889999999999,394.0,25.85
103,0,31975.0,47.6376,8.570889999999999,394.0,25.85
104,0,32000.0,47.63621,8.56997,394.0,25.85
105,0,32000.0,47.63621,8.56997,391.0,25.71
106,0,32000.0,47.63621,8.56997,392.0,25.65
107,0,32000.0,47.63621,8.56997,393.0,25.78
108,0,32000.0,47.63621,8.56997,394.0,25.85
109,0,32000.0,47.63621,8.56997,393.0,25.78
110,0,32000.0,47.63621,8.56997,393.0,25.78
111,0,32000.0,47.63621,8.56997,393.0,25.78
112,0,32000.0,47.61861,8.55722,393.0,25.78
113,0,32000.0,47.61861,8.55722,393.0,25.78
114,0,32000.0,47.61861,8.55722,393.0,25.78
115,0,32000.0,47.61861,8.55722,393.0,25.91
116,0,32000.0,47.61861,8.55722,393.0,25.91
117,0,32000.0,47.61861,8.55722,394.0,25.85
118,0,32000.0,47.63315,8.56755,394.0,25.85
119,1,31144.0,47.63462,8.5687,394.0,25.85
120,0,32000.0,47.63621,8.56997,394.0,25.85
121,0,31975.0,47.638020000000004,8.57124,394.0,25.85
122,0,31975.0,47.63828,8.57133,394.0,25.85
123,0,31975.0,47.638690000000004,8.57174,394.0,25.85
124,0,31975.0,47.64226,8.57427,394.0,25.85
125,0,31975.0,47.6376,8.570889999999999,394.0,25.85
126,0,31975.0,47.638690000000004,8.57174,394.0,25.85
127,0,31975.0,47.63828,8.57133,394.0,25.85
128,0,31975.0,47.63828,8.57133,394.0,25.85
129,0,31975.0,47.64002,8.57272,394.0,25.85
130,0,32000.0,47.6412,8.57359,394.0,25.85
131,0,32000.0,47.643359999999994,8.57504,394.0,25.85
132,0,32000.0,47.643359999999994,8.57504,394.0,25.85
133,0,32000.0,47.6412,8.57359,394.0,25.85
134,0,31975.0,47.6376,8.570889999999999,394.0,25.85
135,0,31975.0,47.6376,8.570889999999999,394.0,25.85
136,0,31975.0,47.638690000000004,8.57174,394.0,25.85
137,0,31975.0,47.63828,8.57133,394.0,25.85
138,0,31975.0,47.64427,8.57565,394.0,25.85
139,0,31975.0,47.64427,8.57565,394.0,25.85
140,0,31975.0,47.64226,8.57427,394.0,25.85
141,0,32000.0,47.64501,8.57617,394.0,25.85
142,0,31975.0,47.64427,8.57565,394.0,25.85
143,0,32000.0,47.64501,8.57617,394.0,25.85
144,0,31975.0,47.64578,8.57675,394.0,25.85
145,0,31975.0,47.64578,8.57675,394.0,25.85
146,0,31975.0,47.64427,8.57565,394.0,25.85
147,0,31975.0,47.64427,8.57565,394.0,25.85
148,0,31975.0,47.64674,8.57737,394.0,25.85
149,0,32000.0,47.64501,8.57617,394.0,25.85
150,0,31975.0,47.64738,8.57785,394.0,25.85
151,0,31975.0,47.64738,8.57785,394.0,25.85
152,0,31975.0,47.64836,8.578560000000001,394.0,25.85
153,0,31975.0,47.64836,8.578560000000001,394.0,25.85
154,0,31975.0,47.64836,8.578560000000001,394.0,25.85
155,0,32000.0,47.64501,8.57617,394.0,25.85
156,0,31975.0,47.64578,8.57675,394.0,25.85
157,0,31975.0,47.64738,8.57785,394.0,25.85
158,0,31975.0,47.64901,8.57905,394.0,25.85
159,0,31975.0,47.64901,8.57905,394.0,25.85
160,0,31975.0,47.64901,8.57905,394.0,25.85
161,0,31975.0,47.64975,8.57962,394.0,25.85
162,0,31975.0,47.64738,8.57785,394.0,25.85
163,0,31975.0,47.64738,8.57785,394.0,25.85
164,0,31975.0,47.64674,8.57737,394.0,25.85
165,0,31975.0,47.64836,8.578560000000001,394.0,25.85
166,0,31975.0,47.64836,8.578560000000001,394.0,25.85
167,0,31975.0,47.65036,8.580039999999999,394.0,25.85
168,0,31975.0,47.65036,8.580039999999999,394.0,25.85
169,0,31975.0,47.651379999999996,8.58082,394.0,25.85
170,0,31975.0,47.651379999999996,8.58082,394.0,25.85
171,0,31975.0,47.651379999999996,8.58082,394.0,25.85
172,0,31975.0,47.651379999999996,8.58082,394.0,25.85
173,0,31975.0,47.651379999999996,8.58082,394.0,25.85
174,0,31975.0,47.65208,8.58131,394.0,25.85
175,0,31975.0,47.65036,8.580039999999999,394.0,25.85
176,0,31975.0,47.65297,8.58197,394.0,25.85
177,0,31975.0,47.65297,8.58197,394.0,25.85
178,0,31975.0,47.65361,8.58238,394.0,25.85
179,0,31975.0,47.651379999999996,8.58082,394.0,25.85
180,0,31975.0,47.65446,8.583,394.0,25.85
181,0,31975.0,47.65297,8.58197,394.0,25.85
182,0,32000.0,47.655570000000004,8.58363,394.0,25.85
183,1,32884.0,47.655570000000004,8.58363,394.0,25.85
184,0,31975.0,47.65361,8.58238,394.0,25.85
185,0,31975.0,47.6566,8.58441,394.0,25.85
186,0,31975.0,47.6566,8.58441,394.0,25.85
187,0,31975.0,47.6566,8.58441,394.0,25.85
188,0,31975.0,47.6566,8.58441,394.0,25.85
189,0,31975.0,47.65446,8.583,394.0,25.85
190,0,31975.0,47.65741,8.58506,394.0,25.85
191,0,32000.0,47.655570000000004,8.58363,394.0,25.85
192,0,32000.0,47.655570000000004,8.58363,394.0,25.85
193,0,32000.0,47.655570000000004,8.58363,394.0,25.85
194,0,32000.0,47.65805,8.58554,394.0,25.85
195,0,32000.0,47.65805,8.58554,394.0,25.85
196,0,32000.0,47.65805,8.58554,394.0,25.85
197,0,32000.0,47.65805,8.58554,394.0,25.85
198,0,32000.0,47.65805,8.58554,394.0,25.85
199,0,31975.0,47.659009999999995,8.5863,394.0,25.85
200,1,31120.0,47.659009999999995,8.5863,394.0,25.85
201,0,31975.0,47.65741,8.58506,394.0,25.85
202,0,32000.0,47.65805,8.58554,394.0,25.85
203,0,31975.0,47.65974,8.58685,394.0,25.85
204,0,31975.0,47.65741,8.58506,394.0,25.85
205,0,31975.0,47.65741,8.58506,394.0,25.85
206,0,31975.0,47.65741,8.58506,394.0,25.85
207,0,31975.0,47.65741,8.58506,394.0,25.85
208,0,31975.0,47.66043,8.58733,394.0,25.85
209,0,31975.0,47.66043,8.58733,394.0,25.85
210,0,31975.0,47.65741,8.58506,394.0,25.85
211,0,32000.0,47.65805,8.58554,394.0,25.85
212,0,31975.0,47.66134,8.58793,394.0,25.85
213,1,32906.0,47.659009999999995,8.5863,394.0,25.85
214,0,31975.0,47.659009999999995,8.5863,394.0,25.85
215,0,31975.0,47.659009999999995,8.5863,394.0,25.85
216,0,31975.0,47.65974,8.58685,394.0,25.85
217,0,31975.0,47.65974,8.58685,394.0,25.85
218,0,31975.0,47.66217,8.58849,394.0,25.85
219,0,31975.0,47.66217,8.58849,394.0,25.85
220,0,31975.0,47.66217,8.58849,394.0,25.85
221,0,31975.0,47.66043,8.58733,394.0,25.85
222,0,31975.0,47.663270000000004,8.58918,394.0,25.85
223,0,31975.0,47.663270000000004,8.58918,394.0,25.85
224,0,31975.0,47.66217,8.58849,394.0,25.85
225,0,32000.0,47.66414,8.58976,394.0,25.85
226,0,32000.0,47.66414,8.58976,394.0,25.85
227,0,31975.0,47.66217,8.58849,394.0,25.85
228,0,31975.0,47.663270000000004,8.58918,394.0,25.85
229,0,32000.0,47.66414,8.58976,394.0,25.85
230,0,32000.0,47.66512,8.590530000000001,394.0,25.85
231,0,31975.0,47.663270000000004,8.58918,394.0,25.85
232,1,32858.0,47.66597,8.59117,394.0,25.85
233,0,32000.0,47.66414,8.58976,394.0,25.85
234,0,32000.0,47.66414,8.58976,394.0,25.85
235,0,31975.0,47.66597,8.59117,394.0,25.85
236,0,32000.0,47.66512,8.590530000000001,394.0,25.85
237,0,32000.0,47.66512,8.590530000000001,394.0,25.85
238,0,31975.0,47.66689,8.59193,394.0,25.85
239,0,32000.0,47.66512,8.590530000000001,394.0,25.85
240,0,32000.0,47.66414,8.58976,394.0,25.85
241,0,31975.0,47.66597,8.59117,394.0,25.85
242,0,31975.0,47.66753,8.592410000000001,394.0,25.85
243,0,31975.0,47.66826,8.59296,394.0,25.85
244,0,31975.0,47.66826,8.59296,394.0,25.85
245,0,31975.0,47.66689,8.59193,394.0,25.85
246,0,31975.0,47.66689,8.59193,394.0,25.85
247,0,31975.0,47.66917,8.59356,394.0,25.85
248,0,31975.0,47.66917,8.59356,394.0,25.85
249,0,31975.0,47.66753,8.592410000000001,394.0,25.85
250,0,31975.0,47.670190000000005,8.59427,394.0,25.85
251,0,31975.0,47.66826,8.59296,394.0,25.85
252,0,32000.0,47.67089,8.59476,394.0,25.85
253,0,31975.0,47.670190000000005,8.59427,394.0,25.85
254,0,31975.0,47.66753,8.592410000000001,394.0,25.85
255,0,31975.0,47.66753,8.592410000000001,394.0,25.85
256,0,31975.0,47.66917,8.59356,394.0,25.85
257,0,31975.0,47.66917,8.59356,394.0,25.85
258,0,32000.0,47.67196,8.59539,394.0,25.85
259,0,31975.0,47.66689,8.59193,394.0,25.85
260,0,31975.0,47.66753,8.592410000000001,394.0,25.85
261,0,31975.0,47.66826,8.59296,394.0,25.85
262,0,31975.0,47.66826,8.59296,394.0,25.85
263,0,31975.0,47.66917,8.59356,394.0,25.85
264,0,32000.0,47.67089,8.59476,394.0,25.85
265,0,32000.0,47.67196,8.59539,394.0,25.85
266,0,31975.0,47.66917,8.59356,394.0,25.85
267,0,32000.0,47.67303,8.596169999999999,394.0,25.85
268,0,31975.0,47.66689,8.59193,394.0,25.85
269,0,31975.0,47.66689,8.59193,394.0,25.85
270,0,32000.0,47.67089,8.59476,394.0,25.85
271,0,31975.0,47.673840000000006,8.5968,394.0,25.85
272,0,32000.0,47.674440000000004,8.59728,394.0,25.85
273,0,32000.0,47.674440000000004,8.59728,394.0,25.85
274,0,31975.0,47.673840000000006,8.5968,394.0,25.85
275,0,31975.0,47.673840000000006,8.5968,394.0,25.85
276,0,31975.0,47.673840000000006,8.5968,394.0,25.85
277,0,31975.0,47.675259999999994,8.59793,394.0,25.85
278,0,32000.0,47.67303,8.596169999999999,394.0,25.85
279,0,32000.0,47.674440000000004,8.59728,394.0,25.85
280,1,32870.0,47.673840000000006,8.5968,394.0,25.85
281,0,31975.0,47.67613,8.59859,394.0,25.85
282,0,31975.0,47.67613,8.59859,394.0,25.85
283,0,32000.0,47.674440000000004,8.59728,394.0,25.85
284,0,32000.0,47.674440000000004,8.59728,394.0,25.85
285,0,32000.0,47.674440000000004,8.59728,394.0,25.85
286,0,32000.0,47.674440000000004,8.59728,394.0,25.85
287,0,31975.0,47.67719,8.59934,394.0,25.85
288,1,32837.0,47.677170000000004,8.599269999999999,394.0,25.85
289,0,31975.0,47.677170000000004,8.599269999999999,394.0,25.85
290,0,31975.0,47.677170000000004,8.599269999999999,394.0,25.85
291,1,31049.0,47.674440000000004,8.59728,394.0,25.85
292,0,31975.0,47.677170000000004,8.599269999999999,394.0,25.85
293,0,31975.0,47.677170000000004,8.599269999999999,394.0,25.85
294,0,31975.0,47.677170000000004,8.599269999999999,394.0,25.85
295,0,31975.0,47.67613,8.59859,394.0,25.85
296,0,32000.0,47.67722,8.599269999999999,394.0,25.85
297,0,32000.0,47.67722,8.599269999999999,394.0,25.85
298,0,32000.0,47.67722,8.5992,394.0,25.85
299,0,31975.0,47.677170000000004,8.599269999999999,394.0,25.85
300,0,31975.0,47.67719,8.59934,394.0,25.85
301,0,31975.0,47.67719,8.59934,394.0,25.85
302,0,32000.0,47.67722,8.5992,394.0,25.85
303,0,32000.0,47.67787,8.59975,394.0,25.85
304,0,31975.0,47.677170000000004,8.599269999999999,394.0,25.85
305,0,31975.0,47.677170000000004,8.599269999999999,394.0,25.85
306,0,31975.0,47.678740000000005,8.600439999999999,394.0,25.85
307,0,31975.0,47.678740000000005,8.600439999999999,394.0,25.85
308,0,32000.0,47.67722,8.599269999999999,394.0,25.85
309,0,32000.0,47.67722,8.599269999999999,394.0,25.85
310,0,32000.0,47.67722,8.599269999999999,394.0,25.85
311,0,31975.0,47.68007,8.6014,394.0,25.85
312,0,31975.0,47.678740000000005,8.600439999999999,394.0,25.85
313,0,32000.0,47.67722,8.5992,394.0,25.85
314,0,32000.0,47.67787,8.59975,394.0,25.85
315,0,31975.0,47.68127,8.602219999999999,394.0,25.85
316,0,31975.0,47.68127,8.602219999999999,394.0,25.85
317,0,32000.0,47.67787,8.59975,394.0,25.85
318,0,32000.0,47.67787,8.59975,394.0,25.85
319,0,31975.0,47.67719,8.59934,394.0,25.85
320,0,31975.0,47.67719,8.59934,394.0,25.85
321,0,32000.0,47.68227,8.602910000000001,394.0,25.85
322,0,31975.0,47.68007,8.6014,394.0,25.85
323,0,31975.0,47.68127,8.602219999999999,394.0,25.85
324,0,31975.0,47.68127,8.602219999999999,394.0,25.85
325,0,31975.0,47.68127,8.602219999999999,394.0,25.85
326,0,31975.0,47.68127,8.602219999999999,394.0,25.85
327,0,31975.0,47.68332,8.60367,394.0,25.85
328,0,31975.0,47.68332,8.60367,394.0,25.85
329,0,31975.0,47.68416,8.6042,394.0,25.85
330,0,32000.0,47.68227,8.602910000000001,394.0,25.85
331,0,32000.0,47.68227,8.602910000000001,394.0,25.85
332,0,32000.0,47.68227,8.602910000000001,394.0,25.85
333,0,32000.0,47.68227,8.602910000000001,394.0,25.85
334,0,32000.0,47.68227,8.602910000000001,394.0,25.85
335,0,31975.0,47.68858,8.607380000000001,394.0,25.85
336,0,31975.0,47.68858,8.607380000000001,394.0,25.85
337,0,32000.0,47.68927,8.60793,394.0,25.85
338,0,32000.0,47.68927,8.60793,394.0,25.85
339,0,32000.0,47.68927,8.60793,394.0,25.85
340,0,32000.0,47.68927,8.60793,394.0,25.85
341,0,32000.0,47.68927,8.60793,394.0,25.85
342,0,32000.0,47.68927,8.60793,394.0,25.85
343,0,31975.0,47.69077,8.609060000000001,394.0,25.85
344,0,32000.0,47.68927,8.60793,394.0,25.85
345,0,32000.0,47.68927,8.60793,394.0,25.85
346,0,31975.0,47.68643,8.6058,394.0,25.85
347,0,31975.0,47.68643,8.6058,394.0,25.85
348,0,31975.0,47.691790000000005,8.609760000000001,394.0,25.85
349,0,32000.0,47.67722,8.5992,394.0,25.85
350,0,32000.0,47.69007,8.60856,394.0,25.85
351,1,32876.0,47.692809999999994,8.61046,394.0,25.85
352,0,31975.0,47.678740000000005,8.600439999999999,394.0,25.85
353,0,31975.0,47.68127,8.602219999999999,394.0,25.85
354,0,31975.0,47.691790000000005,8.609760000000001,394.0,25.85
355,0,31975.0,47.69077,8.609060000000001,394.0,25.85
356,0,31975.0,47.693659999999994,8.611080000000001,394.0,25.85
357,0,31975.0,47.69458,8.61166,394.0,25.85
358,0,31975.0,47.69458,8.61166,394.0,25.85
359,0,32000.0,47.69007,8.60856,394.0,25.85
360,0,32000.0,47.69007,8.60856,394.0,25.85
361,0,31975.0,47.691790000000005,8.609760000000001,394.0,25.85
362,0,31975.0,47.692809999999994,8.61046,394.0,25.85
363,0,31975.0,47.69565,8.61237,394.0,25.85
364,0,31975.0,47.693659999999994,8.611080000000001,394.0,25.85
365,0,31975.0,47.696459999999995,8.613010000000001,394.0,25.85
366,0,31975.0,47.69458,8.61166,394.0,25.85
367,0,31975.0,47.69077,8.609060000000001,394.0,25.85
368,0,31975.0,47.69728,8.6137,394.0,25.85
369,0,31975.0,47.69565,8.61237,394.0,25.85
370,0,31975.0,47.69806,8.614239999999999,394.0,25.85
371,0,31975.0,47.69806,8.614239999999999,394.0,25.85
372,0,31975.0,47.696459999999995,8.613010000000001,394.0,25.85
373,1,32786.0,47.69806,8.614239999999999,394.0,25.85
374,0,31975.0,47.69806,8.614239999999999,394.0,25.85
375,0,31975.0,47.69806,8.614239999999999,394.0,25.85
376,0,32000.0,47.6987,8.61479,394.0,25.85
377,0,31975.0,47.69728,8.6137,394.0,25.85
378,0,31975.0,47.69728,8.6137,394.0,25.85
379,0,31975.0,47.6998,8.61555,394.0,25.85
380,0,31975.0,47.6998,8.61555,394.0,25.85
381,1,32846.0,47.69806,8.614239999999999,394.0,25.85
382,0,31975.0,47.70085,8.6163,394.0,25.85
383,0,31975.0,47.70085,8.6163,394.0,25.85
384,0,32000.0,47.6987,8.61479,394.0,25.85
385,0,32000.0,47.6987,8.61479,394.0,25.85
386,0,31975.0,47.69806,8.614239999999999,394.0,25.85
387,0,31975.0,47.70171,8.61687,394.0,25.85
388,0,31975.0,47.6998,8.61555,394.0,25.85
389,0,31975.0,47.69806,8.614239999999999,394.0,25.85
390,0,31975.0,47.70085,8.6163,394.0,25.85
391,0,32000.0,47.6987,8.61479,394.0,25.85
392,0,32000.0,47.6987,8.61479,394.0,25.85
393,0,32000.0,47.70264,8.6174,394.0,25.85
394,0,31975.0,47.70347,8.618,394.0,25.85
395,0,31975.0,47.70347,8.618,394.0,25.85
396,0,31975.0,47.70347,8.618,394.0,25.85
397,0,31975.0,47.7045,8.61877,394.0,25.85
398,0,31975.0,47.70171,8.61687,394.0,25.85
399,0,32000.0,47.70264,8.6174,394.0,25.85
400,0,31975.0,47.70347,8.618,394.0,25.85
401,0,31975.0,47.70347,8.618,552.0,112.8
402,0,31975.0,47.70347,8.618,394.0,25.85
403,0,31975.0,47.70515,8.61927,394.0,25.85
404,0,31975.0,47.70347,8.618,394.0,25.85
405,0,31975.0,47.70593,8.61994,394.0,25.85
406,0,31975.0,47.70673,8.62054,394.0,25.85
407,0,31975.0,47.70673,8.62054,394.0,25.85
408,0,31975.0,47.70515,8.61927,394.0,25.85
409,0,31975.0,47.70515,8.61927,394.0,25.85
410,1,32940.0,47.70673,8.62054,394.0,25.85
411,0,31975.0,47.70673,8.62054,393.0,25.91
412,0,31975.0,47.70748,8.621030000000001,393.0,25.91
413,0,32000.0,47.70836,8.62166,393.0,25.91
414,0,32000.0,47.70836,8.62166,393.0,25.91
415,0,32000.0,47.70836,8.62166,393.0,25.91
416,0,31975.0,47.70593,8.61994,393.0,25.91
417,0,31975.0,47.7092,8.6223,393.0,25.91
418,0,31975.0,47.7092,8.6223,393.0,25.91
419,0,31975.0,47.7092,8.6223,393.0,25.91
420,0,31975.0,47.71005,8.62283,393.0,25.91
421,1,31169.0,47.70836,8.62166,393.0,25.91
422,0,31975.0,47.71005,8.62283,393.0,25.91
423,0,31975.0,47.71005,8.62283,393.0,25.91
424,0,31975.0,47.71005,8.62283,393.0,25.91
425,0,31975.0,47.71005,8.62283,393.0,25.91
426,0,31975.0,47.71005,8.62283,393.0,25.91
427,0,32000.0,47.71115,8.623510000000001,393.0,25.91
428,0,32000.0,47.71115,8.623510000000001,393.0,25.91
429,0,32000.0,47.71115,8.623510000000001,393.0,25.91
430,0,32000.0,47.71115,8.623510000000001,393.0,25.91
431,0,32000.0,47.71115,8.623510000000001,393.0,25.91
432,0,31975.0,47.7092,8.6223,393.0,25.91
433,0,31975.0,47.7092,8.6223,393.0,25.91
434,0,31975.0,47.71204,8.624130000000001,393.0,25.91
435,0,31975.0,47.71005,8.62283,393.0,25.91
436,0,31975.0,47.71005,8.62283,393.0,25.91
437,0,31975.0,47.71005,8.62283,393.0,25.91
438,0,31975.0,47.71284,8.62475,393.0,25.91
439,0,31975.0,47.71284,8.62475,393.0,25.91
440,0,32000.0,47.71349,8.6253,393.0,25.91
441,0,32000.0,47.71349,8.6253,393.0,25.91
442,0,32000.0,47.71349,8.6253,393.0,25.91
443,0,31975.0,47.71284,8.62475,393.0,25.91
444,0,31975.0,47.71284,8.62475,393.0,25.91
445,0,31975.0,47.71204,8.624130000000001,393.0,25.91
446,0,32000.0,47.71349,8.6253,393.0,25.91
447,1,32854.0,47.71349,8.6253,393.0,25.91
448,0,31975.0,47.71427,8.62589,393.0,25.91
449,0,32000.0,47.71349,8.6253,393.0,25.91
450,0,32000.0,47.71349,8.6253,393.0,25.91
451,0,31975.0,47.71284,8.62475,393.0,25.91
452,0,31975.0,47.7153,8.626660000000001,393.0,25.91
453,0,31975.0,47.7153,8.626660000000001,393.0,25.91
454,0,32000.0,47.71349,8.6253,393.0,25.91
455,0,32000.0,47.71349,8.6253,393.0,25.91
456,1,32884.0,47.71349,8.6253,393.0,25.91
457,0,32000.0,47.71349,8.6253,393.0,25.91
458,0,32000.0,47.71632,8.62744,393.0,25.78
459,1,31092.0,47.71632,8.62744,393.0,25.78
460,0,31975.0,47.71427,8.62589,393.0,25.78
461,0,32000.0,47.71632,8.62744,393.0,25.78
462,0,32000.0,47.716229999999996,8.6273,393.0,25.78
463,0,31975.0,47.7153,8.626660000000001,393.0,25.91
464,0,31975.0,47.7153,8.626660000000001,393.0,25.91
465,0,32000.0,47.71632,8.62744,393.0,25.91
466,0,32000.0,47.7166,8.62758,393.0,25.91
467,0,32000.0,47.7166,8.62758,393.0,25.78
468,0,32000.0,47.7166,8.62758,393.0,25.78
469,0,32000.0,47.716229999999996,8.6273,393.0,25.78
470,0,32000.0,47.716229999999996,8.6273,393.0,25.78
471,0,32000.0,47.7166,8.62722,393.0,25.78
472,1,31096.0,47.71632,8.62744,393.0,25.78
473,0,32000.0,47.7166,8.62758,393.0,25.78
474,0,32000.0,47.7166,8.62758,393.0,25.78
475,0,32000.0,47.716229999999996,8.6273,393.0,25.78
476,0,32000.0,47.71632,8.62744,393.0,25.78
477,0,32000.0,47.71711,8.62786,393.0,25.78
478,0,32000.0,47.7166,8.62758,393.0,25.78
479,0,32000.0,47.718109999999996,8.62866,393.0,25.78
480,0,32000.0,47.718109999999996,8.62866,393.0,25.78
481,0,32000.0,47.71711,8.62786,393.0,25.78
482,0,32000.0,47.71711,8.62786,393.0,25.78
483,0,32000.0,47.719120000000004,8.62941,393.0,25.78
484,0,32000.0,47.7166,8.62722,393.0,25.78
485,0,32000.0,47.7166,8.62722,393.0,25.78
486,0,32000.0,47.7166,8.62722,393.0,25.78
487,0,32000.0,47.7166,8.62722,393.0,25.78
488,0,32000.0,47.7204,8.63031,393.0,25.78
489,0,32000.0,47.718109999999996,8.62866,393.0,25.78
490,0,32000.0,47.72113,8.63086,393.0,25.78
491,0,32000.0,47.72113,8.63086,393.0,25.78
492,0,32000.0,47.72232,8.63161,393.0,25.78
493,0,32000.0,47.72232,8.63161,393.0,25.78
494,0,32000.0,47.7204,8.63031,393.0,25.78
495,0,32000.0,47.719120000000004,8.62941,393.0,25.78
496,0,32000.0,47.72312,8.63223,393.0,25.78
497,0,32000.0,47.72312,8.63223,393.0,25.78
498,0,32000.0,47.72312,8.63223,393.0,25.78
499,1,32945.0,47.72368,8.63258,393.0,25.78
500,0,32000.0,47.72368,8.63258,393.0,25.78
501,0,32000.0,47.72312,8.63223,393.0,25.78
502,0,32000.0,47.72232,8.63161,393.0,25.78
503,0,32000.0,47.72428,8.63307,393.0,25.78
504,1,31009.0,47.72507,8.63354,393.0,25.78
505,0,32000.0,47.72507,8.63354,393.0,25.78
506,0,32000.0,47.72312,8.63223,393.0,25.78
507,0,32000.0,47.72312,8.63223,393.0,25.78
508,0,32000.0,47.72428,8.63307,393.0,25.78
509,0,32000.0,47.72591,8.63413,393.0,25.78
510,0,32000.0,47.72591,8.63413,393.0,25.78
511,0,32000.0,47.72368,8.63258,393.0,25.78
512,0,32000.0,47.72368,8.63258,393.0,25.78
513,0,32000.0,47.72368,8.63258,393.0,25.78
514,0,32000.0,47.72591,8.63413,393.0,25.78
515,0,32000.0,47.72661,8.63462,393.0,25.78
516,0,31975.0,47.72749,8.63532,393.0,25.78
517,0,32000.0,47.72507,8.63354,393.0,25.78
518,0,32000.0,47.72507,8.63354,393.0,25.78
519,0,32000.0,47.72507,8.63354,393.0,25.78
520,0,31975.0,47.728229999999996,8.635869999999999,393.0,25.78
521,0,31975.0,47.728229999999996,8.635869999999999,393.0,25.78
522,0,31975.0,47.728229999999996,8.635869999999999,393.0,25.78
523,0,31975.0,47.728229999999996,8.635869999999999,393.0,25.78
524,0,31975.0,47.728229999999996,8.635869999999999,393.0,25.78
525,0,31975.0,47.728229999999996,8.635869999999999,393.0,25.78
526,0,31975.0,47.728229999999996,8.635869999999999,393.0,25.78
527,0,31975.0,47.728229999999996,8.635869999999999,393.0,25.78
528,0,31975.0,47.728229999999996,8.635869999999999,393.0,25.78
529,0,31975.0,47.728229999999996,8.635869999999999,393.0,25.78
530,0,32000.0,47.72661,8.63462,393.0,25.78
531,0,32000.0,47.72903,8.63645,393.0,25.78
532,0,32000.0,47.72903,8.63645,393.0,25.78
533,0,31975.0,47.72749,8.63532,393.0,25.78
534,0,31975.0,47.72749,8.63532,393.0,25.78
535,0,31975.0,47.72749,8.63532,393.0,25.78
536,0,32000.0,47.730059999999995,8.63723,393.0,25.78
537,0,32000.0,47.730059999999995,8.63723,393.0,25.78
538,0,32000.0,47.730059999999995,8.63723,393.0,25.78
539,0,31975.0,47.73075,8.63772,393.0,25.78
540,0,31975.0,47.73075,8.63772,393.0,25.78
541,0,31975.0,47.73075,8.63772,393.0,25.78
542,0,31975.0,47.73075,8.63772,393.0,25.78
543,0,31975.0,47.73075,8.63772,393.0,25.78
544,0,31975.0,47.73075,8.63772,393.0,25.78
545,0,32000.0,47.72903,8.63645,393.0,25.78
546,0,32000.0,47.72903,8.63645,393.0,25.78
547,0,32000.0,47.72903,8.63645,393.0,25.78
548,0,32000.0,47.73178,8.63842,393.0,25.78
549,0,32000.0,47.73178,8.63842,393.0,25.78
550,0,32000.0,47.730059999999995,8.63723,393.0,25.78
551,0,32000.0,47.730059999999995,8.63723,393.0,25.78
552,0,32000.0,47.732620000000004,8.63903,393.0,25.78
553,0,31975.0,47.73075,8.63772,393.0,25.78
554,0,32000.0,47.72903,8.63645,393.0,25.78
555,0,32000.0,47.72903,8.63645,393.0,25.78
556,0,32000.0,47.72903,8.63645,393.0,25.78
557,0,32000.0,47.72903,8.63645,393.0,25.78
558,0,32000.0,47.732620000000004,8.63903,393.0,25.78
559,0,32000.0,47.732620000000004,8.63903,393.0,25.78
560,0,32000.0,47.732620000000004,8.63903,393.0,25.78
561,0,31975.0,47.73355,8.639619999999999,393.0,25.78
562,0,32000.0,47.73178,8.63842,393.0,25.78
563,0,32000.0,47.73178,8.63842,393.0,25.78
564,0,32000.0,47.732620000000004,8.63903,393.0,25.78
565,0,32000.0,47.732620000000004,8.63903,393.0,25.78
566,0,32000.0,47.732620000000004,8.63903,394.0,25.85
567,0,32000.0,47.73457,8.64032,394.0,25.85
568,0,32000.0,47.73457,8.64032,393.0,25.91
569,1,31093.0,47.73457,8.64032,393.0,25.91
570,0,32000.0,47.73457,8.64032,393.0,25.78
571,0,32000.0,47.73766,8.642669999999999,393.0,25.78
572,0,32000.0,47.73766,8.642669999999999,393.0,25.78
573,0,32000.0,47.73766,8.642669999999999,393.0,25.78
574,0,32000.0,47.73766,8.642669999999999,393.0,25.78
575,0,32000.0,47.73766,8.642669999999999,393.0,25.78
576,0,32000.0,47.73766,8.642669999999999,393.0,25.78
577,0,32000.0,47.73923,8.64385,393.0,25.78
578,0,32000.0,47.73701,8.64219,393.0,25.78
579,0,32000.0,47.7403,8.64455,393.0,25.78
580,0,32000.0,47.7403,8.64455,393.0,25.78
581,1,32893.0,47.7403,8.64455,393.0,25.78
582,0,32000.0,47.7403,8.64455,393.0,25.78
583,0,32000.0,47.7403,8.64455,393.0,25.78
584,0,32000.0,47.73625,8.641589999999999,393.0,25.78
585,0,32000.0,47.72113,8.63086,393.0,25.78
586,0,32000.0,47.72113,8.63086,393.0,25.78
587,0,32000.0,47.72113,8.63086,393.0,25.78
588,0,32000.0,47.72428,8.63307,393.0,25.78
589,0,32000.0,47.72591,8.63413,393.0,25.78
590,0,32000.0,47.72591,8.63413,393.0,25.78
591,0,32000.0,47.72591,8.63413,393.0,25.78
592,0,32000.0,47.73853,8.64335,393.0,25.78
593,0,32000.0,47.73853,8.64335,393.0,25.78
594,0,32000.0,47.74132,8.64525,393.0,25.78
595,0,32000.0,47.73923,8.64385,393.0,25.78
596,0,32000.0,47.73923,8.64385,393.0,25.78
597,0,31975.0,47.72749,8.63532,393.0,25.78
598,0,31975.0,47.72749,8.63532,393.0,25.78
599,0,31975.0,47.72749,8.63532,394.0,25.85
600,0,31975.0,47.72749,8.63532,393.0,25.78
601,1,32837.0,47.72749,8.63532,393.0,25.78
602,0,31975.0,47.72749,8.63532,393.0,25.78
603,0,31975.0,47.72749,8.63532,394.0,25.85
604,0,31975.0,47.72749,8.63532,393.0,25.78
605,0,31975.0,47.72749,8.63532,393.0,25.78
606,0,31975.0,47.74223,8.64583,393.0,25.78
607,0,31975.0,47.74223,8.64583,393.0,25.78
608,0,32000.0,47.74374,8.646939999999999,393.0,25.78
609,0,32000.0,47.74374,8.646939999999999,393.0,25.78
610,0,32000.0,47.74374,8.646939999999999,393.0,25.78
611,0,32000.0,47.74374,8.646939999999999,393.0,25.78
612,0,32000.0,47.73457,8.64032,393.0,25.78
613,0,32000.0,47.73457,8.64032,393.0,25.78
614,0,32000.0,47.73457,8.64032,394.0,25.85
615,0,32000.0,47.73457,8.64032,394.0,25.85
616,0,32000.0,47.65805,8.58554,394.0,25.85
617,0,32000.0,47.65805,8.58554,393.0,25.78
618,0,32000.0,47.65805,8.58554,393.0,25.78
619,0,32000.0,47.743140000000004,8.64638,393.0,25.78
620,0,32000.0,47.743140000000004,8.64638,393.0,25.78
621,0,32000.0,47.743140000000004,8.64638,394.0,25.85
622,0,32000.0,47.743140000000004,8.64638,394.0,25.85
623,0,32000.0,47.743140000000004,8.64638,394.0,25.85
624,0,32000.0,47.743140000000004,8.64638,394.0,25.85
625,0,32000.0,47.67196,8.59539,394.0,25.85
626,0,32000.0,47.67196,8.59539,394.0,25.85
627,0,32000.0,47.67196,8.59539,393.0,25.78
628,0,31975.0,47.675259999999994,8.59793,393.0,25.78
629,0,31975.0,47.67719,8.59934,393.0,25.78
630,0,31975.0,47.68007,8.6014,393.0,25.78
631,0,32000.0,47.68227,8.602910000000001,393.0,25.78
632,0,32000.0,47.68227,8.602910000000001,393.0,25.78
633,0,32000.0,47.68227,8.602910000000001,393.0,25.78
634,0,32000.0,47.68227,8.602910000000001,393.0,25.78
635,0,32000.0,47.75006,8.65146,393.0,25.78
636,0,32000.0,47.75006,8.65146,393.0,25.78
637,0,32000.0,47.75006,8.65146,394.0,25.85
638,0,31975.0,47.71005,8.62283,393.0,25.91
639,0,31975.0,47.71005,8.62283,393.0,25.91
640,0,31975.0,47.71005,8.62283,393.0,25.91
641,0,31975.0,47.71005,8.62283,393.0,25.91
642,0,31975.0,47.71005,8.62283,394.0,25.72
643,0,31975.0,47.751940000000005,8.65279,394.0,25.72
644,0,31975.0,47.751940000000005,8.65279,394.0,25.72
645,1,32811.0,47.74933,8.65098,394.0,25.72
646,1,32822.0,47.75006,8.65146,394.0,25.72
647,0,32000.0,47.75291,8.65356,394.0,25.72
648,0,32000.0,47.75291,8.65356,393.0,25.91
649,0,32000.0,47.75291,8.65356,393.0,25.91
650,0,32000.0,47.75291,8.65356,393.0,25.91
651,0,32000.0,47.75291,8.65356,393.0,25.78
652,0,32000.0,47.75291,8.65356,393.0,25.78
653,0,32000.0,47.75291,8.65356,393.0,25.78
654,0,32000.0,47.72232,8.63161,393.0,25.78
655,0,32000.0,47.72232,8.63161,394.0,25.85
656,0,32000.0,47.72232,8.63161,394.0,25.85
657,0,32000.0,47.72232,8.63161,394.0,25.72
658,0,31975.0,47.75459,8.65483,394.0,25.85
659,0,31975.0,47.75459,8.65483,394.0,25.85
660,0,32000.0,47.75291,8.65356,394.0,25.85
661,0,32000.0,47.75291,8.65356,394.0,25.72
662,0,32000.0,47.75542,8.655439999999999,394.0,25.72
663,0,32000.0,47.75542,8.655439999999999,394.0,25.85
664,0,31975.0,47.74223,8.64583,394.0,25.85
665,0,32000.0,47.74374,8.646939999999999,394.0,25.85
666,0,32000.0,47.75542,8.655439999999999,394.0,25.85
667,0,32000.0,47.75542,8.655439999999999,394.0,25.85
668,0,32000.0,47.753840000000004,8.65427,394.0,25.85
669,0,32000.0,47.755520000000004,8.65547,394.0,25.85
670,0,32000.0,47.755520000000004,8.65547,394.0,25.85
671,0,31975.0,47.75589,8.65575,394.0,25.85
672,0,31975.0,47.75589,8.65575,394.0,25.85
673,0,31975.0,47.75589,8.65575,394.0,25.85
674,0,31975.0,47.75589,8.65575,394.0,25.85
675,0,31975.0,47.75589,8.65575,394.0,25.85
676,0,32000.0,47.75587,8.65537,394.0,25.85
677,0,32000.0,47.75542,8.655439999999999,394.0,25.85
678,0,31975.0,47.74933,8.65098,394.0,25.72
679,0,31975.0,47.74933,8.65098,394.0,25.72
680,0,32000.0,47.75636,8.65603,394.0,25.72
681,0,32000.0,47.75636,8.65603,394.0,25.85
682,0,32000.0,47.75636,8.65603,394.0,25.85
683,0,31975.0,47.75589,8.65575,394.0,25.85
684,0,31975.0,47.75589,8.65575,394.0,25.85
685,0,31975.0,47.75589,8.65575,394.0,25.85
686,0,31975.0,47.75739,8.65681,394.0,25.85
687,0,31975.0,47.75739,8.65681,394.0,25.85
688,0,31975.0,47.75739,8.65681,394.0,25.85
689,0,32000.0,47.75587,8.65537,394.0,25.85
690,0,32000.0,47.75587,8.65537,394.0,25.85
691,0,32000.0,47.75867,8.65778,394.0,25.85
692,0,32000.0,47.75867,8.65778,394.0,25.85
693,0,32000.0,47.75111,8.65215,394.0,25.72
694,0,32000.0,47.75111,8.65215,394.0,25.72
695,0,32000.0,47.755520000000004,8.65547,394.0,25.85
696,0,32000.0,47.755520000000004,8.65547,394.0,25.85
697,0,32000.0,47.755520000000004,8.65547,394.0,25.85
698,0,32000.0,47.75587,8.65537,394.0,25.85
699,0,32000.0,47.75291,8.65356,394.0,25.72
700,0,32000.0,47.75291,8.65356,394.0,25.72
701,0,31975.0,47.75459,8.65483,394.0,25.85
702,0,31975.0,47.75459,8.65483,394.0,25.85
703,0,31975.0,47.75985,8.65864,394.0,25.85
704,0,31975.0,47.75985,8.65864,394.0,25.85
705,0,32000.0,47.755520000000004,8.65547,394.0,25.85
706,0,32000.0,47.755520000000004,8.65547,394.0,25.85
707,0,32000.0,47.755520000000004,8.65547,394.0,25.85
708,0,31975.0,47.75589,8.65575,394.0,25.85
709,0,31975.0,47.75589,8.65575,394.0,25.85
710,0,32000.0,47.75587,8.65537,394.0,25.85
711,0,31975.0,47.75739,8.65681,394.0,25.85
712,0,31975.0,47.75739,8.65681,394.0,25.85
713,0,31975.0,47.75739,8.65681,394.0,25.85
714,0,31975.0,47.75739,8.65681,394.0,25.85
715,0,31975.0,47.75739,8.65681,394.0,25.85
716,0,31975.0,47.75739,8.65681,394.0,25.85
717,0,31975.0,47.75739,8.65681,394.0,25.85
718,0,31975.0,47.75985,8.65864,394.0,25.85
719,0,31975.0,47.75985,8.65864,394.0,25.85
720,0,31975.0,47.7626,8.66045,394.0,25.85
721,0,31975.0,47.7626,8.66045,394.0,25.85
722,0,31975.0,47.76086,8.659289999999999,394.0,25.85
723,0,31975.0,47.76086,8.659289999999999,394.0,25.85
724,0,32000.0,47.75636,8.65603,394.0,25.85
725,0,32000.0,47.75636,8.65603,394.0,25.85
726,0,31975.0,47.76343,8.66114,394.0,25.85
727,0,31975.0,47.75985,8.65864,394.0,25.85
728,0,31975.0,47.75985,8.65864,394.0,25.85
729,0,32000.0,47.76413,8.661589999999999,394.0,25.85
730,0,31975.0,47.76086,8.659289999999999,394.0,25.85
731,0,31975.0,47.76086,8.659289999999999,394.0,25.85
732,0,31975.0,47.76086,8.659289999999999,394.0,25.85
733,0,31975.0,47.76086,8.659289999999999,394.0,25.85
734,0,31975.0,47.76086,8.659289999999999,394.0,25.85
735,0,32000.0,47.76413,8.661589999999999,394.0,25.85
736,0,32000.0,47.76413,8.661589999999999,394.0,25.85
737,0,31975.0,47.765029999999996,8.662239999999999,394.0,25.85
738,0,31975.0,47.76343,8.66114,394.0,25.85
739,0,31975.0,47.76343,8.66114,394.0,25.85
740,0,32000.0,47.7659,8.66279,394.0,25.85
741,0,32000.0,47.7659,8.66279,394.0,25.85
742,0,32000.0,47.7659,8.66279,394.0,25.85
743,0,32000.0,47.7659,8.66279,394.0,25.85
744,0,32000.0,47.76413,8.661589999999999,394.0,25.85
745,0,32000.0,47.76413,8.661589999999999,394.0,25.85
746,0,31975.0,47.76682,8.66354,394.0,25.85
747,0,31975.0,47.76682,8.66354,394.0,25.85
748,0,32000.0,47.767720000000004,8.6642,394.0,25.85
749,0,32000.0,47.7659,8.66279,394.0,25.85
750,0,32000.0,47.7659,8.66279,394.0,25.85
751,0,32000.0,47.76832,8.66469,394.0,25.85
752,0,32000.0,47.76897,8.66518,394.0,25.85
753,0,32000.0,47.76897,8.66518,394.0,25.85
754,0,31975.0,47.76682,8.66354,394.0,25.85
755,0,31975.0,47.76682,8.66354,394.0,25.85
756,0,32000.0,47.75636,8.65603,394.0,25.85
757,0,31975.0,47.75739,8.65681,394.0,25.85
758,0,31975.0,47.75739,8.65681,394.0,25.85
759,0,32000.0,47.76832,8.66469,394.0,25.85
760,0,31975.0,47.76343,8.66114,394.0,25.85
761,0,32000.0,47.77004,8.66589,394.0,25.85
762,0,32000.0,47.76832,8.66469,394.0,25.85
763,0,32000.0,47.77074,8.66645,394.0,25.85
764,0,32000.0,47.76897,8.66518,394.0,25.85
765,0,32000.0,47.76897,8.66518,394.0,25.85
766,0,31975.0,47.77158,8.66698,394.0,25.85
767,0,31975.0,47.77158,8.66698,394.0,25.85
768,0,32000.0,47.77074,8.66645,394.0,25.85
769,0,31975.0,47.772420000000004,8.667580000000001,394.0,25.85
770,0,31975.0,47.772420000000004,8.667580000000001,394.0,25.85
771,0,32000.0,47.77074,8.66645,394.0,25.85
772,0,31975.0,47.77158,8.66698,394.0,25.85
773,0,31975.0,47.77158,8.66698,394.0,25.85
774,0,31975.0,47.773540000000004,8.668280000000001,394.0,25.85
775,0,31975.0,47.773540000000004,8.668280000000001,394.0,25.85
776,1,32865.0,47.773540000000004,8.668280000000001,394.0,25.85
777,0,31975.0,47.773540000000004,8.668280000000001,394.0,25.85
778,0,32000.0,47.77004,8.66589,394.0,25.85
779,0,32000.0,47.77004,8.66589,394.0,25.85
780,0,31975.0,47.77428,8.66871,394.0,25.85
781,0,31975.0,47.77428,8.66871,394.0,25.85
782,0,31975.0,47.772420000000004,8.667580000000001,394.0,25.85
783,0,31975.0,47.77158,8.66698,394.0,25.85
784,0,31975.0,47.77158,8.66698,394.0,25.85
785,0,31975.0,47.77158,8.66698,394.0,25.85
786,0,32000.0,47.77505,8.66945,394.0,25.85
787,0,32000.0,47.775909999999996,8.670110000000001,394.0,25.85
788,0,32000.0,47.775909999999996,8.670110000000001,394.0,25.85
789,0,32000.0,47.775909999999996,8.670110000000001,394.0,25.85
790,0,32000.0,47.775909999999996,8.670110000000001,394.0,25.85
791,0,32000.0,47.775909999999996,8.670110000000001,394.0,25.85
792,0,32000.0,47.775909999999996,8.670110000000001,394.0,25.85
793,0,32000.0,47.775909999999996,8.670110000000001,394.0,25.85
794,0,32000.0,47.77684,8.670819999999999,394.0,25.85
795,0,31975.0,47.77428,8.66871,394.0,25.85
796,0,31975.0,47.773540000000004,8.668280000000001,394.0,25.85
797,0,32000.0,47.77684,8.670819999999999,394.0,25.85
798,0,31975.0,47.77754,8.67131,394.0,25.85
799,0,32000.0,47.778240000000004,8.6718,394.0,25.85
800,0,32000.0,47.775909999999996,8.670110000000001,394.0,25.85
801,0,31975.0,47.77913,8.67247,394.0,25.85
802,0,31975.0,47.77913,8.67247,394.0,25.85
803,0,32000.0,47.77684,8.670819999999999,394.0,25.85
804,0,32000.0,47.77684,8.670819999999999,394.0,25.85
805,0,32000.0,47.778240000000004,8.6718,394.0,25.85
806,0,32000.0,47.778240000000004,8.6718,394.0,25.98
807,0,32000.0,47.779959999999996,8.67307,394.0,25.98
808,0,32000.0,47.778240000000004,8.6718,394.0,25.85
809,0,32000.0,47.778240000000004,8.6718,394.0,25.85
810,0,31975.0,47.78087,8.673639999999999,394.0,25.85
811,0,31975.0,47.78087,8.673639999999999,394.0,25.85
812,0,31975.0,47.78087,8.673639999999999,394.0,25.85
813,0,32000.0,47.779959999999996,8.67307,394.0,25.85
814,0,31975.0,47.77913,8.67247,394.0,25.85
815,0,31975.0,47.77913,8.67247,394.0,25.85
816,1,32801.0,47.78192,8.67432,394.0,25.98
817,0,31975.0,47.78192,8.67432,394.0,25.98
818,0,32000.0,47.779959999999996,8.67307,394.0,25.98
819,0,32000.0,47.7828,8.67497,394.0,25.98
820,0,32000.0,47.7828,8.67497,394.0,25.98
821,0,31975.0,47.78087,8.673639999999999,394.0,25.98
822,0,31975.0,47.78087,8.673639999999999,394.0,25.98
823,1,32805.0,47.78362,8.67556,394.0,25.98
824,0,32000.0,47.78503,8.676730000000001,394.0,25.98
825,0,32000.0,47.78503,8.676730000000001,394.0,25.85
826,0,31975.0,47.77158,8.66698,394.0,25.85
827,0,32000.0,47.77505,8.66945,394.0,25.85
828,0,32000.0,47.7828,8.67497,394.0,25.85
829,0,31975.0,47.78573,8.67723,394.0,25.85
830,0,32000.0,47.786590000000004,8.67789,394.0,25.85
831,1,32935.0,47.786590000000004,8.67789,394.0,25.85
832,0,31975.0,47.78438,8.67624,394.0,25.85
833,0,31975.0,47.78732,8.67838,394.0,25.98
834,0,31975.0,47.78732,8.67838,394.0,25.98
835,0,32000.0,47.78503,8.676730000000001,394.0,25.98
836,0,31975.0,47.78815,8.678989999999999,394.0,25.98
837,0,31975.0,47.78192,8.67432,394.0,25.98
838,0,32000.0,47.78362,8.67556,394.0,25.98
839,0,32000.0,47.786590000000004,8.67789,394.0,25.98
840,0,31975.0,47.78573,8.67723,394.0,25.98
841,0,32000.0,47.78906,8.67954,394.0,25.98
842,0,32000.0,47.78906,8.67954,394.0,25.98
843,0,32000.0,47.78906,8.67954,394.0,25.98
844,0,31975.0,47.78732,8.67838,394.0,25.98
845,0,31975.0,47.78732,8.67838,394.0,25.98
846,0,31975.0,47.78732,8.67838,394.0,25.98
847,0,32000.0,47.789970000000004,8.68011,394.0,25.85
848,0,32000.0,47.789970000000004,8.68011,394.0,25.85
849,0,31975.0,47.79099,8.68089,394.0,25.85
850,1,31157.0,47.79099,8.68089,394.0,25.85
851,0,32000.0,47.78906,8.67954,394.0,25.85
852,0,32000.0,47.78906,8.67954,394.0,25.98
853,0,32000.0,47.78906,8.67954,394.0,25.98
854,0,31975.0,47.79181,8.68147,394.0,25.98
855,0,31975.0,47.79181,8.68147,394.0,25.85
856,0,32000.0,47.789970000000004,8.68011,394.0,25.85
857,0,32000.0,47.789970000000004,8.68011,394.0,25.85
858,0,31975.0,47.79258,8.682160000000001,394.0,25.85
859,0,31975.0,47.79099,8.68089,394.0,25.85
860,0,31975.0,47.79323,8.68258,394.0,25.85
861,0,31975.0,47.79258,8.682160000000001,394.0,25.85
862,0,31975.0,47.79258,8.682160000000001,394.0,25.85
863,0,31975.0,47.79323,8.68258,394.0,25.85
864,0,31975.0,47.7941,8.68325,394.0,25.85
865,0,31975.0,47.79181,8.68147,394.0,25.85
866,0,31975.0,47.795,8.68392,394.0,25.85
867,0,31975.0,47.7941,8.68325,394.0,25.85
868,0,32000.0,47.79506,8.68394,394.0,25.85
869,0,32000.0,47.79506,8.68394,394.0,25.85
870,0,31975.0,47.79323,8.68258,394.0,25.85
871,0,31975.0,47.78732,8.67838,394.0,25.98
872,0,31975.0,47.78732,8.67838,394.0,25.98
873,0,32000.0,47.79518,8.68399,394.0,25.98
874,0,31975.0,47.795,8.68392,394.0,25.98
875,0,31975.0,47.79546,8.68413,394.0,25.98
876,0,31975.0,47.79099,8.68089,394.0,25.98
877,0,31975.0,47.7941,8.68325,394.0,25.98
878,0,31975.0,47.7941,8.68325,394.0,25.98
879,0,32000.0,47.79506,8.68394,394.0,25.98
880,0,32000.0,47.79602,8.684619999999999,394.0,25.98
881,0,31975.0,47.797579999999996,8.685789999999999,394.0,25.85
882,0,31975.0,47.797579999999996,8.685789999999999,394.0,25.85
883,0,31975.0,47.79546,8.68413,394.0,25.85
884,0,31975.0,47.79546,8.68413,394.0,25.85
885,0,31975.0,47.79546,8.68413,394.0,25.85
886,0,32000.0,47.79602,8.684619999999999,394.0,25.85
887,0,32000.0,47.79909,8.686819999999999,394.0,25.85
888,0,32000.0,47.79909,8.686819999999999,394.0,25.85
889,0,31975.0,47.80023,8.68764,394.0,25.85
890,0,31975.0,47.80023,8.68764,394.0,25.85
891,0,31975.0,47.797579999999996,8.685789999999999,394.0,25.85
892,0,31975.0,47.797579999999996,8.685789999999999,393.0,25.78
893,0,31975.0,47.797579999999996,8.685789999999999,394.0,25.72
894,0,31975.0,47.797579999999996,8.685789999999999,394.0,25.72
895,0,31975.0,47.797579999999996,8.685789999999999,394.0,25.85
896,0,31975.0,47.797579999999996,8.685789999999999,394.0,25.85
897,0,31975.0,47.797579999999996,8.685789999999999,394.0,25.85
898,0,31975.0,47.797579999999996,8.685789999999999,394.0,25.85
899,0,31975.0,47.797579999999996,8.685789999999999,394.0,25.85
900,0,31975.0,47.797579999999996,8.685789999999999,394.0,25.85
901,0,32000.0,47.801140000000004,8.68828,394.0,25.85
902,0,32000.0,47.80339,8.68984,394.0,25.85
903,0,32000.0,47.801790000000004,8.68871,394.0,25.85
904,0,32000.0,47.801790000000004,8.68871,394.0,25.85
905,0,32000.0,47.801790000000004,8.68871,394.0,25.85
906,0,32000.0,47.801790000000004,8.68871,395.0,25.79
907,0,32000.0,47.801790000000004,8.68871,395.0,25.79
908,0,32000.0,47.801790000000004,8.68871,394.0,25.85
909,0,32000.0,47.801790000000004,8.68871,394.0,25.85
910,0,32000.0,47.801790000000004,8.68871,394.0,25.85
911,0,32000.0,47.801790000000004,8.68871,394.0,25.85
912,0,32000.0,47.801790000000004,8.68871,394.0,25.85
913,0,32000.0,47.8071,8.69251,394.0,25.85
914,0,32000.0,47.80788,8.69307,394.0,25.53
915,0,32000.0,47.80788,8.69307,394.0,25.53
916,0,32000.0,47.80788,8.69307,394.0,25.85
917,1,31144.0,47.80788,8.69307,394.0,25.98
918,0,32000.0,47.80788,8.69307,394.0,25.53
919,0,32000.0,47.80788,8.69307,394.0,25.98
920,0,32000.0,47.80788,8.69307,394.0,25.98
921,0,32000.0,47.80788,8.69307,394.0,25.85
922,0,32000.0,47.80788,8.69307,394.0,25.85
923,0,32000.0,47.8071,8.69251,394.0,25.66
924,1,32820.0,47.8071,8.69251,394.0,25.66
925,0,32000.0,47.8071,8.69251,394.0,25.2
926,0,32000.0,47.80788,8.69307,394.0,25.2
927,0,32000.0,47.80788,8.69307,394.0,25.2
928,0,32000.0,47.80788,8.69307,394.0,25.53
929,0,32000.0,47.80788,8.69307,394.0,25.53
930,0,31975.0,47.7941,8.68325,394.0,25.53
931,0,31975.0,47.795,8.68392,394.0,25.85
932,0,31975.0,47.795,8.68392,394.0,25.85
933,0,31975.0,47.795,8.68392,394.0,25.2
934,0,32000.0,47.79518,8.68399,394.0,25.85
935,0,32000.0,47.79518,8.68399,394.0,25.85
936,0,32000.0,47.79602,8.684619999999999,394.0,25.85
937,0,32000.0,47.79602,8.684619999999999,394.0,25.2
938,0,32000.0,47.79602,8.684619999999999,394.0,25.53
939,0,32000.0,47.79602,8.684619999999999,393.0,24.94
940,0,32000.0,47.79602,8.684619999999999,394.0,25.53
941,0,32000.0,47.79909,8.686819999999999,394.0,25.85
942,0,32000.0,47.79909,8.686819999999999,394.0,25.85
943,0,32000.0,47.79909,8.686819999999999,394.0,25.85
944,0,32000.0,47.79909,8.686819999999999,394.0,25.2
945,0,32000.0,47.79909,8.686819999999999,394.0,25.2
